<svg xmlns="http://www.w3.org/2000/svg" width="16" height="17" viewBox="0 0 16 17">
    <path fill="#fff" fill-rule="nonzero" d="M16 14.546l-4.17-4.17a6.506 6.506 0 0 0 1.248-3.837A6.546 6.546 0 0 0 6.538 0 6.546 6.546 0 0 0 0 6.539a6.546 6.546 0 0 0 6.539 6.538 6.504 6.504 0 0 0 3.687-1.14l4.192 4.191L16 14.546zM1.918 6.54a4.627 4.627 0 0 1 4.621-4.622 4.627 4.627 0 0 1 4.622 4.622 4.627 4.627 0 0 1-4.622 4.621A4.626 4.626 0 0 1 1.918 6.54z"/>
</svg>
